[
  {
    "build_id": "redhat:887318",
    "id": "redhat:111218982",
    "origin": "redhat",
    "environment": {
      "comment": "hostname.redhat.com"
    },
    "path": "boot",
    "comment": "Boot Test",
    "status": "PASS",
    "waived": false,
    "start_time": "2020-06-03T15:52:25Z",
    "duration": 158,
    "output_files": [
      {
        "url": "http://log.server/output.3",
        "name": "output.3"
      }
    ],
    "misc": {
      "kcidb": {
        "version": {
          "major": 4,
          "minor": 2
        }
      },
      "iid": 1,
      "is_public": true,
      "is_missing_triage": false,
      "actions": {
        "last_triaged_at": null
      },
      "polarion_id": "2111a0fa-1c27-4663-94d5-a951c509413e",
      "results": [
        {
          "id": "redhat:111218982.1",
          "name": "First result",
          "status": "PASS",
          "output_files": [
            {
              "url": "http://log.server/output.2",
              "name": "output.2"
            }
          ],
          "misc": {
            "iid": 1
          },
          "comment": "First result"
        }
      ]
    }
  },
  {
    "build_id": "redhat:887318",
    "id": "redhat:111218983",
    "origin": "redhat",
    "environment": {
      "comment": "foobar.redhat.com"
    },
    "path": "ltp_lite",
    "comment": "LTP Lite",
    "status": "ERROR",
    "waived": false,
    "start_time": "2020-06-03T16:01:14Z",
    "duration": 312,
    "output_files": [
      {
        "url": "http://log.server/output.4",
        "name": "output.4"
      }
    ],
    "misc": {
      "kcidb": {
        "version": {
          "major": 4,
          "minor": 2
        }
      },
      "iid": 2,
      "is_public": true,
      "is_missing_triage": true,
      "actions": {
        "last_triaged_at": null
      }
    }
  },
  {
    "build_id": "redhat:887318",
    "id": "redhat:111218984",
    "origin": "redhat",
    "environment": {
      "comment": "hostname.redhat.com"
    },
    "path": "ltp_lite",
    "comment": "LTP Lite",
    "status": "MISS",
    "waived": false,
    "output_files": [
      {
        "url": "http://log.server/output.4",
        "name": "output.4"
      }
    ],
    "misc": {
      "kcidb": {
        "version": {
          "major": 4,
          "minor": 2
        }
      },
      "iid": 3,
      "is_public": true,
      "is_missing_triage": false,
      "actions": {
        "last_triaged_at": null
      }
    }
  },
  {
    "build_id": "redhat:887319",
    "id": "redhat:111218985",
    "origin": "redhat",
    "environment": {
      "comment": "hostname.redhat.com"
    },
    "path": "ltp_lite",
    "comment": "LTP Lite",
    "status": "MISS",
    "waived": false,
    "output_files": [
      {
        "url": "http://log.server/output.4",
        "name": "output.4"
      }
    ],
    "misc": {
      "kcidb": {
        "version": {
          "major": 4,
          "minor": 2
        }
      },
      "iid": 4,
      "is_public": true,
      "is_missing_triage": false,
      "actions": {
        "last_triaged_at": null
      }
    }
  },
  {
    "build_id": "redhat:887320",
    "id": "redhat:111218986",
    "origin": "redhat",
    "environment": {
      "comment": "hostname.redhat.com"
    },
    "path": "ltp_lite",
    "comment": "LTP Lite",
    "status": "MISS",
    "waived": false,
    "output_files": [
      {
        "url": "http://log.server/output.4",
        "name": "output.4"
      }
    ],
    "misc": {
      "kcidb": {
        "version": {
          "major": 4,
          "minor": 2
        }
      },
      "iid": 5,
      "is_public": true,
      "is_missing_triage": false,
      "actions": {
        "last_triaged_at": null
      }
    }
  }
]
